^C:\USERS\JAKUB\SOURCE\REPOS\LISTA4_1\LISTA4_1.CPP|C:\USERS\JAKUB\SOURCE\REPOS\LISTA4_1\PCH.CPP
C:\USERS\JAKUB\SOURCE\REPOS\LISTA4_1\DEBUG\VC142.PDB
C:\USERS\JAKUB\SOURCE\REPOS\LISTA4_1\DEBUG\VC142.IDB
C:\USERS\JAKUB\SOURCE\REPOS\LISTA4_1\DEBUG\PCH.OBJ
^C:\USERS\JAKUB\SOURCE\REPOS\LISTA4_1\PCH.CPP
C:\USERS\JAKUB\SOURCE\REPOS\LISTA4_1\DEBUG\PCH.OBJ
^C:\USERS\JAKUB\SOURCE\REPOS\LISTA4_1\LISTA4_1.CPP
C:\USERS\JAKUB\SOURCE\REPOS\LISTA4_1\DEBUG\VC142.PDB
C:\USERS\JAKUB\SOURCE\REPOS\LISTA4_1\DEBUG\VC142.IDB
C:\USERS\JAKUB\SOURCE\REPOS\LISTA4_1\DEBUG\LISTA4_1.OBJ
